<?xml version="1.0"?>

<robot name="crawler" xmlns:xacro="http://ros.org/wiki/xacro">

  <!-- Property Blocks WHEELS-->
  <xacro:property name="caster_wheel_inertia">  <!-- [kg.m^2] [kg.m^2] [kg.m^2] [kg.m^2] [kg.m^2] [kg.m^2] -->
    <inertia
      ixx="0.001"
      iyy="0.001"
      izz="0.001"
      ixy="0.0" ixz="0.0"  iyz="0.0" />
  </xacro:property>
  <xacro:property name="wheel_axis">
    <axis xyz="0 1 0" />
  </xacro:property>
  
  <!-- Included URDF Files -->
  <xacro:include filename="$(find chroma_gazebo_models)/macros/parts/cable_macro.xacro"/>
  <xacro:include filename="$(find chroma_gazebo_models)/macros/parts/cable_base_macro.xacro"/><!---->

  
  
      <!-- Instantiate CABLE Base-->
  <xacro:cable_base_macro
    robot_namespace="${namespace}"
    name="cable_base"
    mass="100"
    radius="0.01"
    length="0.5">
    <origin xyz="0 0 0.005" rpy="0.0 0.0 0.0" />
    <xacro:insert_block name="caster_wheel_inertia" />
    <axis xyz="1 0 0" />
  </xacro:cable_base_macro> 
  
  
  <!-- Instantiate CABLE -->
  <xacro:cable_macro
    robot_namespace = "${namespace}"
    target = "${target}"
    parent_link="${namespace}_cable_base_link"
    id = "${id}"
    x="${x}"
    y="${y}"
    z="${z}"
    name="cable"
    mass="0.00001"
    radius="0.08"
    length="0.15">
    <origin xyz="0.0 0 0.005" rpy="0.0 0.0 0.0" />
    <xacro:insert_block name="caster_wheel_inertia" />
    <axis xyz="0 1 1" />
  </xacro:cable_macro>
  
  <!-- Instantiate CABLE 
  <xacro:cable_macro
    robot_namespace="${namespace}"
    parent_link="${namespace}_cable_1_link"
    name="cable_2"
    mass="0.01"
    radius="0.01"
    length="0.15">
    <origin xyz="-0.15 0 0" rpy="0.0 0.0 0.0" />
    <xacro:insert_block name="caster_wheel_inertia" />
    <axis xyz="1 1 1" />
  </xacro:cable_macro>-->
  
  <!-- Instantiate CABLE 
  <xacro:cable_macro
    robot_namespace="${namespace}"
    parent_link="${namespace}_cable_3_link"
    name="cable_2"
    mass="0.01"
    radius="0.01"
    length="0.15">
    <origin xyz="-0.15 0 0" rpy="0.0 0.0 0.0" />
    <xacro:insert_block name="caster_wheel_inertia" />
    <axis xyz="1 1 1" />
  </xacro:cable_macro>-->
  
 
  

  


</robot>
  
  
  




