<?xml version="1.0"?>

<robot name="crawler" xmlns:xacro="http://ros.org/wiki/xacro">
    <!-- Properties -->
    <xacro:property name="namespace"              value="$(arg namespace)"/>
    <xacro:property name="id"                     value="$(arg id)"/>
    <xacro:property name="target"                 value="$(arg target)"/>
    <xacro:property name="x"                      value="$(arg x)"/>
    <xacro:property name="y"                      value="$(arg y)"/>
    <xacro:property name="z"                      value="$(arg z)"/>


    <!-- fichiers inclus  -->
    <xacro:include filename="$(find chroma_gazebo_models)/models/cable/base.xacro"/>

</robot>
