<?xml version="1.0"?>
<robot xmlns:xacro="http://www.ros.org/wiki/xacro" name="crawler">

  <xacro:include filename="$(find chroma_gazebo_models)/macros/sensors/uwb_macro.xacro"/>

  <!--xacro:uwb_macro
          uwb_namespace="crawler"
          sensor_link="uwb_link"
          body_link="base_footprint"
          uwb_topic="crawler/uwb_sim"
          uwb_frame="uwb_crawler"
          world_frame="world"
          is_tag="True"
          publish_tf="False"
          publish_obstacles="False"
          freq="10.0"
          bad_readings="True"
          readable_anchors="4"
          noise_level="0.2"
          max_range="50.0">
    <origin xyz="0 0 0" rpy="0 0 0"/>
  </xacro:uwb_macro-->
  <!--gazebo>
      <plugin
          filename="libgazebo_plugin__magnetic_wheel.so"
          name="_magnetic_wheel_plugin">
          <link_name>left_front_wheel</link_name>
          <parent_link_name>base_footprint</parent_link_name>
          <magnetic_force>400</magnetic_force>
      </plugin>
    </gazebo>
    
    <gazebo>
      <plugin
          filename="libgazebo_plugin__magnetic_wheel.so"
          name="_magnetic_wheel_plugin">
          <link_name>right_front_wheel</link_name>
          <parent_link_name>base_footprint</parent_link_name>
          <magnetic_force>400</magnetic_force>
      </plugin>
    </gazebo-->
  
  <!--gazebo>
    <plugin name="gz_crawler_plugin" filename="libgazebo_plugin__force.so">
      <force>-4000</force>
      <link_name>base_footprint</link_name>
    </plugin>
  </gazebo-->

  <gazebo>
    <plugin name="differential_drive_controller" filename="libgazebo_ros_diff_drive.so">
      <tf_prefix>crawler</tf_prefix>
      <alwaysOn>fasle</alwaysOn>
      <legacyMode>false</legacyMode>
      <updateRate>20</updateRate>
      <publishWheelTF>false</publishWheelTF>
      <publishOdomTF>true</publishOdomTF>
      <publishTf>true</publishTf>
      <leftJoint>left_front_wheel_joint</leftJoint>
      <rightJoint>right_front_wheel_joint</rightJoint>
      <wheelSeparation>${wheel_separation}</wheelSeparation>
      <wheelDiameter>${front_wheel_radius * 2}</wheelDiameter>
      <torque>1000</torque>
      <commandTopic>/crawler_1/cmd_vel</commandTopic>
      <!-- <odometryTopic>/crawler/odomTest</odometryTopic> -->
      <odometryTopic>/crawler_1/odom</odometryTopic>

      <odometryFrame>/crawler_1/odom</odometryFrame>
      <!--odometrySource>encoder</odometrySource-->
      <robotBaseFrame>/crawler_1/base_footprint</robotBaseFrame>
      <publishWheelJointState>false</publishWheelJointState>
    </plugin>
  </gazebo>

  <gazebo>
      <plugin name="libgazebo_ros_p3d" filename="libgazebo_ros_p3d.so">
          <frameName>world</frameName>
          <bodyName>base_footprint</bodyName>
          <topicName>/crawler/gt/pose</topicName>
          <updateRate>20.0</updateRate>
          <gaussianNoise>0.00</gaussianNoise>
      </plugin>
  </gazebo>

    <gazebo reference="sensor_imu">
    <gravity>true</gravity>
    <sensor name="imu_sensor" type="imu">
      <always_on>true</always_on>
      <update_rate>10</update_rate>
      <visualize>true</visualize>
      <topic>__default_topic__</topic>
      <plugin filename="libgazebo_ros_imu_sensor.so" name="imu_plugin">
        <!-- <topicName>/crawler/imuTest</topicName> -->
        <topicName>/crawler/imu</topicName>

        <bodyName>sensor_imu</bodyName>
        <updateRateHZ>10.0</updateRateHZ>
        <gaussianNoise>0.0</gaussianNoise>
        <!-- <gaussianNoise>0.1</gaussianNoise> -->
        <xyzOffset>0 0 0</xyzOffset>
        <rpyOffset>0 0 0</rpyOffset>
        <frameName>base_link</frameName>
        <initialOrientationAsReference>false</initialOrientationAsReference>
      </plugin>
      <pose>0 0 0 0 0 0</pose>
    </sensor>
  </gazebo>
 


  <gazebo reference="depth_camera">
    <sensor name="${camera_name}_camera" type="depth">
      <update_rate>5.0</update_rate>
      <camera>
        <horizontal_fov>1.22</horizontal_fov>
        <image>
          <width>512</width>
          <height>512</height>
          <format>R8G8B8</format>
        </image>
        <clip>
          <near>0.05</near>
          <far>70</far>
        </clip>
      </camera>
      <plugin name="depth_camera_controller" filename="libgazebo_ros_depth_camera.so">
        <baseline>0.2</baseline>
        <alwaysOn>true</alwaysOn>
        <updateRate>5.0</updateRate>
        <cameraName>${camera_name}_ir</cameraName>
        <imageTopicName>/${camera_name}/color/image_raw</imageTopicName>
        <cameraInfoTopicName>/${camera_name}/color/camera_info</cameraInfoTopicName>
        <depthImageTopicName>/${camera_name}/depth/image_raw</depthImageTopicName>
        <depthImageInfoTopicName>/${camera_name}/depth/camera_info</depthImageInfoTopicName>
        <pointCloudTopicName>/${camera_name}/depth/points</pointCloudTopicName>
        <frameName>depth_camera_gazebo</frameName>
        <pointCloudCutoff>.3</pointCloudCutoff>
        <pointCloudCutoffMax>3.0</pointCloudCutoffMax>
        <distortionK1>0.00000001</distortionK1>
        <distortionK2>0.00000001</distortionK2>
        <distortionK3>0.00000001</distortionK3>
        <distortionT1>0.00000001</distortionT1>
        <distortionT2>0.00000001</distortionT2>
        <CxPrime>0</CxPrime>
        <Cx>0</Cx>
        <Cy>0</Cy>
        <focalLength>0</focalLength>
        <hackBaseline>0</hackBaseline>
      </plugin>
    </sensor>
  </gazebo>

</robot>



